30
0	Zero
1	Um
2	Dois
3	Tres
4	Quatro
5	Cinco
6	Seis
7	Sete
8	Oito
9	Nove
10	Dez
11	Onze
12	Doze
13	Treze
14	Quatorze
15	Quinze
16	Dezesseis
17	Dezessete
18	Dezoito
19	Dezenove
20	Vinte
30	Trinta
40	Quarenta
50	Cinquenta
60	Sessenta
70	Setenta
80	Oitenta
90	Noventa
100	Cem
1000	Mil